-------------------------------------------------------------------------------
Test set: testcases.BaseTest
-------------------------------------------------------------------------------
Tests run: 0, Failures: 0, Errors: 0, Skipped: 0, Time elapsed: 9.474 sec
